effectLoop, 1558613293265705748, 18084231
effectLoop, 1558613293280835766, 15048092
effectLoop, 1558613293294802038, 13874552
effectLoop, 1558613293308115862, 13291585
effectLoop, 1558613293323190569, 15051060
effectLoop, 1558613293337465485, 14200021
effectLoop, 1558613293352900191, 15407258
effectLoop, 1558613293366049380, 13095127
effectLoop, 1558613293380486953, 14415698
effectLoop, 1558613293395322076, 14685332
effectLoop, 1558613293408846838, 13489918
effectLoop, 1558613293423065348, 14196688
effectLoop, 1558613293436805787, 13656324
effectLoop, 1558613293450964089, 14137104
effectLoop, 1558613293464191924, 13175127
effectLoop, 1558613293478558038, 14339604
effectLoop, 1558613293496093208, 17474544
effectLoop, 1558613293515787019, 19647144
effectLoop, 1558613293536778639, 20914953
effectLoop, 1558613293556930990, 20128185
effectLoop, 1558613293576703759, 19709644
effectLoop, 1558613293597152985, 20363445
effectLoop, 1558613293617014920, 19806987
effectLoop, 1558613293637165605, 20064226
effectLoop, 1558613293656554469, 19329853
effectLoop, 1558613293677383745, 20752871
effectLoop, 1558613293697529326, 20104383
effectLoop, 1558613293717191106, 19588550
effectLoop, 1558613293737621738, 20350371
effectLoop, 1558613293757622110, 19928497
effectLoop, 1558613293778018159, 20333341
effectLoop, 1558613293797527282, 19471259
effectLoop, 1558613293818591715, 20990266
effectLoop, 1558613293837749746, 19099489
effectLoop, 1558613293857830795, 20000113
effectLoop, 1558613293877994553, 20126831
effectLoop, 1558613293898069248, 20001882
effectLoop, 1558613293918471495, 20361205
effectLoop, 1558613293939156553, 20611569
effectLoop, 1558613293958637031, 19433394
effectLoop, 1558613293989600452, 30886078
effectLoop, 1558613294021021477, 31327379
effectLoop, 1558613294049831153, 28714260
effectLoop, 1558613294072959072, 23095575
effectLoop, 1558613294086846697, 13869814
effectLoop, 1558613294100237085, 13304606
effectLoop, 1558613294115025177, 14763040
effectLoop, 1558613294128399836, 13299398
effectLoop, 1558613294144005270, 15575278
effectLoop, 1558613294160499974, 16397568
effectLoop, 1558613294181198626, 20632403
effectLoop, 1558613294202590454, 21369276
effectLoop, 1558613294220783592, 18114023
effectLoop, 1558613294240075216, 19252041
effectLoop, 1558613294260749858, 20596987
effectLoop, 1558613294280758617, 19947144
effectLoop, 1558613294300442948, 19599384
effectLoop, 1558613294320465717, 19964123
effectLoop, 1558613294341457494, 20921308
effectLoop, 1558613294361576981, 20080789
effectLoop, 1558613294381729750, 20078029
effectLoop, 1558613294401076582, 19276364
effectLoop, 1558613294421077372, 19903863
effectLoop, 1558613294442246336, 21087194
effectLoop, 1558613294462064209, 19791675
effectLoop, 1558613294482071509, 19932613
effectLoop, 1558613294502185215, 20075633
effectLoop, 1558613294522275692, 20021362
effectLoop, 1558613294541721899, 19384749
effectLoop, 1558613294561861855, 20066831
effectLoop, 1558613294582573685, 20688497
effectLoop, 1558613294603223588, 20574955
effectLoop, 1558613294622609951, 19340635
effectLoop, 1558613294643361468, 20673444
effectLoop, 1558613294663510174, 20109331
effectLoop, 1558613294682460445, 18923813
effectLoop, 1558613294702498110, 19958133
effectLoop, 1558613294723329470, 20791048
effectLoop, 1558613294742631251, 19225322
effectLoop, 1558613294762862925, 20193706
effectLoop, 1558613294791384790, 28445875
effectLoop, 1558613294824302999, 32860605
effectLoop, 1558613294855065797, 30658892
effectLoop, 1558613294883262349, 28165563
effectLoop, 1558613294897229558, 13903772
effectLoop, 1558613294911047861, 13798407
effectLoop, 1558613294926113610, 15039029
effectLoop, 1558613294939984569, 13774032
effectLoop, 1558613294954197715, 14194292
effectLoop, 1558613294967533050, 13263617
effectLoop, 1558613294985129835, 17576159
effectLoop, 1558613295005453071, 20250633
effectLoop, 1558613295025551257, 20042248
effectLoop, 1558613295045729130, 20104384
effectLoop, 1558613295065723878, 19953395
effectLoop, 1558613295085931230, 20162717
effectLoop, 1558613295105961186, 19960373
effectLoop, 1558613295125992757, 19973186
effectLoop, 1558613295146759587, 20683809
effectLoop, 1558613295166193295, 19370583
effectLoop, 1558613295186882521, 20611622
effectLoop, 1558613295206453781, 19526207
effectLoop, 1558613295227220037, 20688392
effectLoop, 1558613295246634995, 19392041
effectLoop, 1558613295267396461, 20670528
effectLoop, 1558613295286865950, 19410687
effectLoop, 1558613295306896687, 20008654
effectLoop, 1558613295326383572, 19401052
effectLoop, 1558613295346610768, 20201362
effectLoop, 1558613295367319994, 20635320
effectLoop, 1558613295387369950, 20010634
effectLoop, 1558613295407500167, 20060790
effectLoop, 1558613295427587675, 20048498
effectLoop, 1558613295447705496, 20020842
effectLoop, 1558613295467700296, 19933759
effectLoop, 1558613295488474470, 20676465
effectLoop, 1558613295508519843, 20021206
effectLoop, 1558613295528041780, 19360999
effectLoop, 1558613295548780016, 20664070
effectLoop, 1558613295567571746, 18715532
effectLoop, 1558613295595352467, 27707388
effectLoop, 1558613295629254685, 33811750
effectLoop, 1558613295658878266, 29519050
effectLoop, 1558613295687821745, 28904104
effectLoop, 1558613295701747236, 13878720
effectLoop, 1558613295715415175, 13649918
effectLoop, 1558613295730604881, 15162311
effectLoop, 1558613295744316154, 13636273
effectLoop, 1558613295758670029, 14323406
effectLoop, 1558613295771912865, 13163930
effectLoop, 1558613295790002096, 18062097
effectLoop, 1558613295810096792, 20014123
effectLoop, 1558613295829603208, 19446208
effectLoop, 1558613295850261757, 20581674
effectLoop, 1558613295870324057, 20035738
effectLoop, 1558613295890527763, 20180685
effectLoop, 1558613295911509436, 20905267
effectLoop, 1558613295930749134, 19180896
effectLoop, 1558613295951585599, 20751986
effectLoop, 1558613295970964724, 19341104
effectLoop, 1558613295990265046, 19204489
effectLoop, 1558613296010959793, 20669747
effectLoop, 1558613296031247249, 20205060
effectLoop, 1558613296051374185, 20062405
effectLoop, 1558613296071479663, 20023342
effectLoop, 1558613296090830298, 19310010
effectLoop, 1558613296111395775, 20539174
effectLoop, 1558613296131180732, 19707926
effectLoop, 1558613296151268814, 20041207
effectLoop, 1558613296171407103, 20065478
effectLoop, 1558613296192835703, 21390996
effectLoop, 1558613296211898006, 18985844
effectLoop, 1558613296231652286, 19727041
effectLoop, 1558613296252118804, 20389488
effectLoop, 1558613296271931158, 19784228
effectLoop, 1558613296292717519, 20764643
effectLoop, 1558613296312353362, 19558656
effectLoop, 1558613296333582327, 21207089
effectLoop, 1558613296352665411, 19004594
effectLoop, 1558613296373812292, 21123288
effectLoop, 1558613296398828696, 24943540
effectLoop, 1558613296432460447, 33532427
effectLoop, 1558613296462643455, 30087071
effectLoop, 1558613296491857194, 29178375
effectLoop, 1558613296505291383, 13395336
effectLoop, 1558613296519094010, 13776428
effectLoop, 1558613296533219188, 14101480
effectLoop, 1558613296546399524, 13104138
effectLoop, 1558613296560451369, 14029293
effectLoop, 1558613296573838371, 13308670
effectLoop, 1558613296595254367, 21391881
effectLoop, 1558613296614761304, 19424333
effectLoop, 1558613296634807302, 19981884
effectLoop, 1558613296654840071, 20010634
effectLoop, 1558613296674717581, 19793187
effectLoop, 1558613296694774464, 20000373
effectLoop, 1558613296714963900, 20116207
effectLoop, 1558613296736214271, 21188704
effectLoop, 1558613296755498188, 19204698
effectLoop, 1558613296775138249, 19583031
effectLoop, 1558613296795330081, 20121676
effectLoop, 1558613296816559983, 21189277
effectLoop, 1558613296836093222, 19453395
effectLoop, 1558613296856093544, 19965790
effectLoop, 1558613296876161730, 20025322
effectLoop, 1558613296896217936, 19978447
effectLoop, 1558613296916040550, 19763499
effectLoop, 1558613296936753734, 20637872
effectLoop, 1558613296956219213, 19425115
effectLoop, 1558613296976939168, 20647872
effectLoop, 1558613296996869386, 19900582
effectLoop, 1558613297016895280, 19964488
effectLoop, 1558613297036641332, 19669646
effectLoop, 1558613297057165819, 20445321
effectLoop, 1558613297077346297, 20156675
effectLoop, 1558613297097343494, 19937770
effectLoop, 1558613297117493815, 20075218
effectLoop, 1558613297137650803, 20113811
effectLoop, 1558613297157770708, 20045426
effectLoop, 1558613297177852696, 20016676
effectLoop, 1558613297202204311, 24268385
effectLoop, 1558613297234426586, 32188629
effectLoop, 1558613297264714594, 30154311
effectLoop, 1558613297296362963, 31585661
effectLoop, 1558613297309624237, 13196899
effectLoop, 1558613297323494728, 13844762
effectLoop, 1558613297338912247, 15392467
effectLoop, 1558613297352502114, 13536950
effectLoop, 1558613297367005729, 14484292
effectLoop, 1558613297381114084, 14015908
effectLoop, 1558613297399478264, 18342721
effectLoop, 1558613297419739626, 20189488
effectLoop, 1558613297439877292, 20086780
effectLoop, 1558613297459404021, 19454802
effectLoop, 1558613297479548040, 20065322
effectLoop, 1558613297499722997, 20130842
effectLoop, 1558613297519844152, 20041832
effectLoop, 1558613297539843692, 19964385
effectLoop, 1558613297560493075, 20571831
effectLoop, 1558613297580500897, 19965010
effectLoop, 1558613297600692260, 20109697
effectLoop, 1558613297621016696, 20301467
effectLoop, 1558613297641451027, 20379175
effectLoop, 1558613297661605671, 20104228
effectLoop, 1558613297680669120, 18999699
effectLoop, 1558613297701252774, 20507247
effectLoop, 1558613297721251533, 19940166
effectLoop, 1558613297741360969, 20035530
effectLoop, 1558613297761532645, 20133551
effectLoop, 1558613297781734216, 20123811
effectLoop, 1558613297801791205, 20016780
effectLoop, 1558613297821936995, 20073498
effectLoop, 1558613297841977525, 19997874
effectLoop, 1558613297862195086, 20137613
effectLoop, 1558613297882256293, 19905114
effectLoop, 1558613297902486718, 20201207
effectLoop, 1558613297922576988, 20012405
effectLoop, 1558613297942593872, 19956728
effectLoop, 1558613297963288098, 20622508
effectLoop, 1558613297982803838, 19485948
effectLoop, 1558613298007028578, 24157032
effectLoop, 1558613298039840018, 32754513
effectLoop, 1558613298069887507, 29965666
effectLoop, 1558613298102155563, 32223526
effectLoop, 1558613298115481472, 13278982
effectLoop, 1558613298129443109, 13933929
effectLoop, 1558613298143815475, 14346272
effectLoop, 1558613298157155655, 13272889
effectLoop, 1558613298171334322, 14158095
effectLoop, 1558613298185543667, 14101585
effectLoop, 1558613298204897063, 19327407
effectLoop, 1558613298224673532, 19692093
effectLoop, 1558613298244797499, 20098760
effectLoop, 1558613298264483239, 19628917
effectLoop, 1558613298284608404, 20054593
effectLoop, 1558613298305220861, 20571259
effectLoop, 1558613298325788838, 20492925
effectLoop, 1558613298345306921, 19472875
effectLoop, 1558613298365388493, 20007405
effectLoop, 1558613298385129805, 19680739
effectLoop, 1558613298405279606, 20076884
effectLoop, 1558613298425703209, 20385113
effectLoop, 1558613298445809624, 20033863
effectLoop, 1558613298466043071, 20164176
effectLoop, 1558613298486842089, 20722716
effectLoop, 1558613298506160850, 19245845
effectLoop, 1558613298526280130, 20092405
effectLoop, 1558613298546274515, 19918968
effectLoop, 1558613298566488691, 20186051
effectLoop, 1558613298586614325, 20049697
effectLoop, 1558613298606738709, 20086208
effectLoop, 1558613298626812573, 20000947
effectLoop, 1558613298646509094, 19636677
effectLoop, 1558613298666678999, 20095843
effectLoop, 1558613298686755154, 20052041
effectLoop, 1558613298706882403, 20050739
effectLoop, 1558613298726909391, 19968291
effectLoop, 1558613298747452681, 20521050
effectLoop, 1558613298767617794, 20089385
effectLoop, 1558613298787767752, 20110999
effectLoop, 1558613298811323691, 23478387
effectLoop, 1558613298841937845, 30552123
effectLoop, 1558613298870973148, 28964678
effectLoop, 1558613298901449229, 30444311
effectLoop, 1558613298917236122, 15702154
effectLoop, 1558613298930534011, 13274347
effectLoop, 1558613298945592989, 15033979
effectLoop, 1558613298958701815, 13043878
effectLoop, 1558613298973239232, 14515282
effectLoop, 1558613298989032897, 15733664
effectLoop, 1558613299009641603, 20583030
effectLoop, 1558613299030414632, 20695634
effectLoop, 1558613299049815112, 19359542
effectLoop, 1558613299070620276, 20731779
effectLoop, 1558613299090087214, 19418865
effectLoop, 1558613299110130401, 20015374
effectLoop, 1558613299130908795, 20701570
effectLoop, 1558613299150409118, 19459490
effectLoop, 1558613299171151366, 20663393
effectLoop, 1558613299190494815, 19287095
effectLoop, 1558613299210637793, 20071103
effectLoop, 1558613299230695928, 20014853
effectLoop, 1558613299250837917, 20066833
effectLoop, 1558613299270769229, 19886521
effectLoop, 1558613299290981947, 20138968
effectLoop, 1558613299311107633, 20077302
effectLoop, 1558613299330784363, 19650635
effectLoop, 1558613299350990726, 20136000
effectLoop, 1558613299371068236, 20036989
effectLoop, 1558613299391659651, 20515269
effectLoop, 1558613299411671379, 19987458
effectLoop, 1558613299432420606, 20679071
effectLoop, 1558613299451973638, 19491105
effectLoop, 1558613299472698699, 20644800
effectLoop, 1558613299491858971, 19099647
effectLoop, 1558613299512618562, 20679800
effectLoop, 1558613299532726593, 20057927
effectLoop, 1558613299552329364, 19574281
effectLoop, 1558613299572971299, 20565009
effectLoop, 1558613299592438029, 19403917
effectLoop, 1558613299616120010, 23608076
effectLoop, 1558613299648593640, 32412900
effectLoop, 1558613299679695345, 30972330
effectLoop, 1558613299712262255, 32536025
effectLoop, 1558613299725565509, 13242160
effectLoop, 1558613299739672510, 14084345
effectLoop, 1558613299753792741, 14091637
effectLoop, 1558613299767061983, 13194139
effectLoop, 1558613299781475599, 14385022
effectLoop, 1558613299795377080, 13816898
effectLoop, 1558613299815932505, 20497509
effectLoop, 1558613299836094442, 20087354
effectLoop, 1558613299856167004, 20010166
effectLoop, 1558613299875930816, 19687667
effectLoop, 1558613299896163742, 20208916
effectLoop, 1558613299916398908, 20210530
effectLoop, 1558613299935802356, 19328865
effectLoop, 1558613299956672885, 20845217
effectLoop, 1558613299976707166, 19961155
effectLoop, 1558613299996470770, 19689906
effectLoop, 1558613300017229633, 20685529
effectLoop, 1558613300036588707, 19331157
effectLoop, 1558613300057416528, 20753342
effectLoop, 1558613300076542373, 19080845
effectLoop, 1558613300096667904, 20052666
effectLoop, 1558613300116836351, 20107614
effectLoop, 1558613300136947455, 20089332
effectLoop, 1558613300157687463, 20659749
effectLoop, 1558613300177108256, 19363136
effectLoop, 1558613300197215662, 20035948
effectLoop, 1558613300217845566, 20576259
effectLoop, 1558613300238191305, 20086260
effectLoop, 1558613300258202096, 19951313
effectLoop, 1558613300277812784, 19534282
effectLoop, 1558613300297697326, 19862562
effectLoop, 1558613300318148585, 20378655
effectLoop, 1558613300338318595, 20074854
effectLoop, 1558613300358387407, 20047146
effectLoop, 1558613300378433459, 19970843
effectLoop, 1558613300398464979, 20008552
effectLoop, 1558613300421278317, 22736932
effectLoop, 1558613300453993665, 32620661
effectLoop, 1558613300483108812, 29046345
effectLoop, 1558613300515827233, 32651390
effectLoop, 1558613300530492723, 14548511
effectLoop, 1558613300544751808, 14227783
effectLoop, 1558613300561820574, 17044444
effectLoop, 1558613300575904399, 14016793
effectLoop, 1558613300597628364, 21703340
effectLoop, 1558613300611099064, 13401326
effectLoop, 1558613300625729763, 14605802
effectLoop, 1558613300640000202, 14200075
effectLoop, 1558613300660198909, 20137562
effectLoop, 1558613300680177982, 19919958
effectLoop, 1558613300700317940, 20042562
effectLoop, 1558613300721797947, 21441413
effectLoop, 1558613300741209573, 19332720
effectLoop, 1558613300761362343, 20115374
effectLoop, 1558613300782058706, 20619176
effectLoop, 1558613300800851896, 18728762
effectLoop, 1558613300822478152, 21547611
effectLoop, 1558613300841439831, 18916627
effectLoop, 1558613300861863122, 20347561
effectLoop, 1558613300882316100, 20403030
effectLoop, 1558613300902453037, 20044125
effectLoop, 1558613300922592318, 20060687
effectLoop, 1558613300942427901, 19812771
effectLoop, 1558613300962529994, 20031364
effectLoop, 1558613300982559640, 19986833
effectLoop, 1558613301002642983, 20003500
effectLoop, 1558613301022712368, 20028083
effectLoop, 1558613301042826545, 20038916
effectLoop, 1558613301062594681, 15866113
effectLoop, 1558613301083049638, 20380530
effectLoop, 1558613301102734649, 19643970
effectLoop, 1558613301123232523, 20420374
effectLoop, 1558613301143394721, 20099490
effectLoop, 1558613301163934939, 20502145
effectLoop, 1558613301183496252, 19483605
effectLoop, 1558613301203720429, 20184749
effectLoop, 1558613301223830908, 20035218
effectLoop, 1558613301243171857, 19300376
effectLoop, 1558613301263296138, 20051520
effectLoop, 1558613301284126095, 20786519
effectLoop, 1558613301304454073, 20248396
effectLoop, 1558613301323972209, 19450532
effectLoop, 1558613301344683625, 20635478
effectLoop, 1558613301363812751, 19088189
effectLoop, 1558613301383962501, 20075739
effectLoop, 1558613301405066259, 21037300
effectLoop, 1558613301424518094, 19425949
effectLoop, 1558613301444674614, 20075219
effectLoop, 1558613301464641708, 19907615
effectLoop, 1558613301484812760, 20099229
effectLoop, 1558613301505029749, 20162875
effectLoop, 1558613301525828560, 20710582
effectLoop, 1558613301545609300, 19721834
effectLoop, 1558613301565924778, 20239437
effectLoop, 1558613301585818279, 19849646
effectLoop, 1558613301606163288, 20269594
effectLoop, 1558613301625627102, 19420272
effectLoop, 1558613301646272371, 20572301
effectLoop, 1558613301666373007, 20058969
effectLoop, 1558613301685561144, 19163762
effectLoop, 1558613301705767195, 20130375
effectLoop, 1558613301725963039, 20156676
effectLoop, 1558613301746122267, 20083239
effectLoop, 1558613301766974516, 20811415
effectLoop, 1558613301786110986, 19064387
effectLoop, 1558613301806244069, 20065844
effectLoop, 1558613301826326059, 19990687
effectLoop, 1558613301846375340, 20009229
effectLoop, 1558613301866498944, 20050636
effectLoop, 1558613301887584889, 21044695
effectLoop, 1558613301906788860, 19116053
effectLoop, 1558613301929337927, 22486724
effectLoop, 1558613301963528950, 34120450
effectLoop, 1558613301994184876, 30553061
effectLoop, 1558613302025133093, 30915821
effectLoop, 1558613302041581288, 16354810
effectLoop, 1558613302056183601, 14580960
effectLoop, 1558613302070509093, 14249554
effectLoop, 1558613302084301616, 13766065
effectLoop, 1558613302098207525, 13885127
effectLoop, 1558613302111909632, 13616378
effectLoop, 1558613302128735483, 16802882
effectLoop, 1558613302148805233, 19992459
effectLoop, 1558613302169344096, 20506207
effectLoop, 1558613302189364263, 19939594
effectLoop, 1558613302208989796, 19577616
effectLoop, 1558613302229055431, 19983345
effectLoop, 1558613302250003617, 20879019
effectLoop, 1558613302269362327, 19299388
effectLoop, 1558613302289475879, 20066781
effectLoop, 1558613302309899066, 20398500
effectLoop, 1558613302330055378, 20081104
effectLoop, 1558613302350078045, 19976105
effectLoop, 1558613302370224722, 20069646
effectLoop, 1558613302390301452, 20031677
effectLoop, 1558613302410417400, 20041104
effectLoop, 1558613302430415483, 19942876
effectLoop, 1558613302450532212, 20043292
effectLoop, 1558613302470629827, 20050271
effectLoop, 1558613302490804369, 20145219
effectLoop, 1558613302510721359, 19842980
effectLoop, 1558613302530756213, 19994855
effectLoop, 1558613302550884401, 20054958
effectLoop, 1558613302570975974, 20040740
effectLoop, 1558613302591965774, 20800009
effectLoop, 1558613302611248234, 19256992
effectLoop, 1558613302631190224, 19868813
effectLoop, 1558613302651265964, 20033188
effectLoop, 1558613302672542951, 21202560
effectLoop, 1558613302691457703, 18869909
effectLoop, 1558613302711631203, 20147979
effectLoop, 1558613302732379285, 20659280
effectLoop, 1558613302760486831, 28068900
effectLoop, 1558613302789038491, 28444785
effectLoop, 1558613302820094989, 31022071
effectLoop, 1558613302844387231, 24175991
effectLoop, 1558613302859218137, 14804657
effectLoop, 1558613302873048942, 13766274
effectLoop, 1558613302886427508, 13352889
effectLoop, 1558613302899959668, 13509138
effectLoop, 1558613302919672908, 19624334
effectLoop, 1558613302939062139, 19336939
effectLoop, 1558613302959034441, 19897876
effectLoop, 1558613302979172941, 20113292
effectLoop, 1558613302999726128, 20480271
effectLoop, 1558613303019366869, 19596313
effectLoop, 1558613303040044066, 20601052
effectLoop, 1558613303059255693, 19150325
effectLoop, 1558613303080098619, 20750895
effectLoop, 1558613303100234723, 20090271
effectLoop, 1558613303119939526, 19679855
effectLoop, 1558613303140104172, 20081521
effectLoop, 1558613303160620849, 20469749
effectLoop, 1558613303180737162, 20042771
effectLoop, 1558613303200302955, 19540741
effectLoop, 1558613303220452132, 20080167
effectLoop, 1558613303240487456, 19995219
effectLoop, 1558613303261075330, 20509697
